<svg xmlns="http://www.w3.org/2000/svg" width="11.1" height="20.012" viewBox="0 0 11.1 20.012">
  <g id="Group_113" data-name="Group 113" transform="translate(11.1 20.012) rotate(180)">
    <path id="Path_74" data-name="Path 74" d="M5.547,0a.8.8,0,0,0-.8.8V17.3L1.357,13.932a.8.8,0,1,0-1.12,1.13l4.749,4.721a.8.8,0,0,0,1.125,0l4.753-4.721a.8.8,0,0,0-1.12-1.13L6.344,17.3V.8A.8.8,0,0,0,5.547,0Z" fill="#40424f"/>
  </g>
</svg>
