<svg xmlns="http://www.w3.org/2000/svg" width="11.1" height="20.012" viewBox="0 0 11.1 20.012">
  <g id="Group_114" data-name="Group 114" transform="translate(11.1 20.012) rotate(180)">
    <path id="Path_74" data-name="Path 74" d="M5.547,20.012a.8.8,0,0,1-.8-.8V2.709L1.357,6.08A.8.8,0,1,1,.236,4.95L4.985.23A.8.8,0,0,1,6.11.23l4.753,4.72a.8.8,0,0,1-1.12,1.13l-3.4-3.37V19.215A.8.8,0,0,1,5.547,20.012Z" transform="translate(0 0)" fill="#40424f"/>
  </g>
</svg>
