<svg xmlns="http://www.w3.org/2000/svg" width="84" height="84" viewBox="0 0 84 84">
  <g id="info" transform="translate(-6 -6)">
    <g id="Group_157" data-name="Group 157">
      <path id="Path_81" data-name="Path 81" d="M48,90A42,42,0,1,1,90,48,41.995,41.995,0,0,1,48,90Zm0-80A38,38,0,1,0,86,48,37.983,37.983,0,0,0,48,10Z"/>
    </g>
    <g id="Group_161" data-name="Group 161">
      <g id="Group_159" data-name="Group 159">
        <g id="Group_158" data-name="Group 158">
          <path id="Path_82" data-name="Path 82" d="M48,67a2.006,2.006,0,0,1-2-2V42a2,2,0,0,1,4,0V65A2.006,2.006,0,0,1,48,67Z"/>
        </g>
      </g>
      <g id="Group_160" data-name="Group 160">
        <circle id="Ellipse_11" data-name="Ellipse 11" cx="2" cy="2" r="2" transform="translate(46 30)"/>
        <path id="Path_83" data-name="Path 83" d="M48,35a3,3,0,1,1,3-3A2.946,2.946,0,0,1,48,35Zm0-4a1,1,0,1,0,1,1A.945.945,0,0,0,48,31Z"/>
      </g>
    </g>
  </g>
</svg>
