<svg xmlns="http://www.w3.org/2000/svg" width="22.613" height="19.823" viewBox="0 0 22.613 19.823">
  <path id="Path_84" data-name="Path 84" d="M31.74,25.072l-1.433.729-1.433-.729A19.732,19.732,0,0,0,20.094,23H19V39.777h1.094A17.536,17.536,0,0,1,27.9,41.6l2.411,1.222L32.717,41.6a17.536,17.536,0,0,1,7.8-1.824h1.094V23H40.519A19.732,19.732,0,0,0,31.74,25.072ZM21.188,37.618v-12.4A17.547,17.547,0,0,1,27.9,27.041l1.317.646V39.832l-.339-.168a19.746,19.746,0,0,0-7.685-2.046Zm18.236,0a19.746,19.746,0,0,0-7.685,2.042l-.339.168V27.687l1.317-.675a17.547,17.547,0,0,1,6.707-1.787Z" transform="translate(-19 -23)" fill="#fff"/>
</svg>
